<svg width="10px" height="6px" viewBox="0 0 10 6" version="1.1" xmlns="http://www.w3.org/2000/svg" xmlns:xlink="http://www.w3.org/1999/xlink">
    <title>Path</title>
    <g id="Symbols" stroke="none" stroke-width="1" fill="none" fill-rule="evenodd">
        <g id="icon/icon-arrow-copy" fill="#FFFFFF" fill-rule="nonzero">
            <path d="M9.54594155,0.596194078 C9.7195079,0.76976043 9.73879305,1.03918483 9.603797,1.23405297 L9.54594155,1.30330086 L4.94974747,5.89949494 L0.353553391,1.30330086 C0.158291245,1.10803871 0.158291245,0.791456224 0.353553391,0.596194078 C0.527119742,0.422627726 0.796544144,0.403342576 0.991412284,0.538338627 L1.06066017,0.596194078 L4.94974747,4.48437531 L8.83883476,0.596194078 C9.01240112,0.422627726 9.28182552,0.403342576 9.47669366,0.538338627 L9.54594155,0.596194078 Z" id="Path"></path>
        </g>
    </g>
</svg>