<svg width="14px" height="14px" viewBox="0 0 9 9" version="1.1" xmlns="http://www.w3.org/2000/svg" xmlns:xlink="http://www.w3.org/1999/xlink">
    <title>Path</title>
    <g id="Symbols" stroke="none" stroke-width="1" fill="none" fill-rule="evenodd">
        <g id="icon/icon-cross-copy" transform="translate(-3.000000, -3.000000)" fill="#FFFFFF" fill-rule="nonzero">
            <g id="cross" transform="translate(-0.282843, -0.282843)">
                <g id="plus" transform="translate(8.061017, 8.061017) rotate(-45.000000) translate(-8.061017, -8.061017) translate(2.361017, 2.361017)">
                    <path d="M5.60792626,0.00675575371 C5.3074694,0.0512586593 5.07692308,0.310244304 5.07692308,0.623076924 L5.076,5.076 L0.623076923,5.07692308 C0.278961043,5.07692308 -1.8189894e-12,5.35588413 -1.8189894e-12,5.7 L0.00675575362,5.79207374 C0.0512586586,6.09253062 0.3102443,6.32307693 0.623076923,6.32307693 L5.076,6.323 L5.07692308,10.7769231 C5.07692308,11.1210389 5.35588412,11.4 5.7,11.4 L5.79207374,11.3932442 C6.09253061,11.3487413 6.32307693,11.0897557 6.32307693,10.7769231 L6.323,6.323 L10.7769231,6.32307693 C11.121039,6.32307693 11.4,6.04411589 11.4,5.7 L11.3932442,5.60792626 C11.3487413,5.3074694 11.0897557,5.07692308 10.7769231,5.07692308 L6.323,5.076 L6.32307693,0.623076924 C6.32307693,0.278961041 6.04411589,-1.8189894e-12 5.7,-1.8189894e-12 L5.60792626,0.00675575371 Z" id="Path"></path>
                </g>
            </g>
        </g>
    </g>
</svg>