<svg width="19px" height="19px" viewBox="0 0 19 19" version="1.1" xmlns="http://www.w3.org/2000/svg" xmlns:xlink="http://www.w3.org/1999/xlink">
    <title>crochet copy 2</title>
    <g id="HOME" stroke="none" stroke-width="1" fill="none" fill-rule="evenodd" stroke-linecap="round" stroke-linejoin="round">
        <g id="00-HOME-v2" transform="translate(-986.000000, -4028.000000)" stroke="#008082" stroke-width="2">
            <g id="Group-17" transform="translate(330.000000, 3972.757326)">
                <polyline id="crochet-copy-2" points="673.65433 56.3763736 673.65433 72.3763736 657.66762 72.3763736"></polyline>
            </g>
        </g>
    </g>
</svg>